"Number of species";1;2;3;4;5;6
"to have 50% of catch";1;2;2;2;1;1
"to have 90% of catch";6;6;8;4;3;2
"with a median higher than 50";1;0;0;0;1;1
"with a test-value > 1.96";1;5;6;3;1;2
"with a test-value > 3.29";1;4;6;3;1;2
"catch in 50% of the logevents";8;5;9;4;1;1
"catch in 90% of the logevents";1;0;0;1;1;1
"Clusters size";136;37;140;73;2;15
