"x"
"Clust 1"
"tabClusters[1:sizeTabClusters[i], , i]"
"Crevette grise"
"CSH"
"13.4"
"99.7"
"100"
"x"
"Clust 2"
"Libname";"FAO";"Test-value";"% Catch";"% Logevents"
"Crevette grise";"CSH";"-0.6";"91.8";"100"
"Limande";"DAB";"4.6";"4.1";"94.4"
"Anguille d'Europe";"ELE";"1.1";"1.3";"8.3"
"Sole commune";"SOL";"-0.1";"0.4";"47.2"
"Plie d'Europe";"PLE";"-1";"0.1";"33.3"
"x"
"Clust 3"
"Libname";"FAO";"Test-value";"% Catch";"% Logevents"
"Crevette grise";"CSH";"-2.4";"81.9";"100"
"Limande";"DAB";"11.4";"12.6";"100"
"Sole commune";"SOL";"0.1";"0.5";"37.5"
"Plie d'Europe";"PLE";"-0.5";"0.5";"50"
"x"
"Clust 4"
"Libname";"FAO";"Test-value";"% Catch";"% Logevents"
"Anguille d'Europe";"ELE";"9.5";"25";"25"
"Crabe chinois";"ERS";"10.5";"25";"25"
"Plie d'Europe";"PLE";"1.5";"11.8";"50"
"Limande";"DAB";"3.7";"8.7";"25"
"Sole commune";"SOL";"1.7";"4.1";"25"
"x"
"Clust 5"
"Libname";"FAO";"Test-value";"% Catch";"% Logevents"
"Langoustine";"NEP";"19";"52.5";"100"
"Plie d'Europe";"PLE";"3.6";"28.5";"100"
"Crevette grise";"CSH";"-7.4";"5.7";"33.3"
"Limande";"DAB";"0.1";"1.4";"66.7"
"Sole commune";"SOL";"-0.1";"0.3";"33.3"
"x"
"Clust 6"
"Libname";"FAO";"Test-value";"% Catch";"% Logevents"
"Plie d'Europe";"PLE";"18.8";"77.8";"100"
"Crevette grise";"CSH";"-13.7";"5.2";"10"
"Langoustine";"NEP";"2.4";"4.1";"20"
"Limande";"DAB";"1.1";"2.5";"60"
"Sole commune";"SOL";"-0.2";"0.2";"10"
"x"
"Clust 7"
"Libname";"FAO";"Test-value";"% Catch";"% Logevents"
"Sole commune";"SOL";"19.9";"44";"100"
"Limande";"DAB";"10.5";"22.5";"100"
"Plie d'Europe";"PLE";"1.9";"14.4";"75"
"Crevette grise";"CSH";"-8.9";"1.7";"50"
"x"
"Clust 1"
"tabClusters[1:sizeTabClusters[i], , i]"
"Crevette grise"
"CSH"
"13.4"
"99.7"
"100"
"x"
"Clust 2"
"Libname";"FAO";"Test-value";"% Catch";"% Logevents"
"Crevette grise";"CSH";"-0.6";"91.8";"100"
"Limande";"DAB";"4.6";"4.1";"94.4"
"Anguille d'Europe";"ELE";"1.1";"1.3";"8.3"
"Sole commune";"SOL";"-0.1";"0.4";"47.2"
"Plie d'Europe";"PLE";"-1";"0.1";"33.3"
"x"
"Clust 3"
"Libname";"FAO";"Test-value";"% Catch";"% Logevents"
"Crevette grise";"CSH";"-2.4";"81.9";"100"
"Limande";"DAB";"11.4";"12.6";"100"
"Sole commune";"SOL";"0.1";"0.5";"37.5"
"Plie d'Europe";"PLE";"-0.5";"0.5";"50"
"x"
"Clust 4"
"Libname";"FAO";"Test-value";"% Catch";"% Logevents"
"Anguille d'Europe";"ELE";"9.5";"25";"25"
"Crabe chinois";"ERS";"10.5";"25";"25"
"Plie d'Europe";"PLE";"1.5";"11.8";"50"
"Limande";"DAB";"3.7";"8.7";"25"
"Sole commune";"SOL";"1.7";"4.1";"25"
"x"
"Clust 5"
"Libname";"FAO";"Test-value";"% Catch";"% Logevents"
"Langoustine";"NEP";"19";"52.5";"100"
"Plie d'Europe";"PLE";"3.6";"28.5";"100"
"Crevette grise";"CSH";"-7.4";"5.7";"33.3"
"Limande";"DAB";"0.1";"1.4";"66.7"
"Sole commune";"SOL";"-0.1";"0.3";"33.3"
"x"
"Clust 6"
"Libname";"FAO";"Test-value";"% Catch";"% Logevents"
"Plie d'Europe";"PLE";"18.8";"77.8";"100"
"Crevette grise";"CSH";"-13.7";"5.2";"10"
"Langoustine";"NEP";"2.4";"4.1";"20"
"Limande";"DAB";"1.1";"2.5";"60"
"Sole commune";"SOL";"-0.2";"0.2";"10"
"x"
"Clust 7"
"Libname";"FAO";"Test-value";"% Catch";"% Logevents"
"Sole commune";"SOL";"19.9";"44";"100"
"Limande";"DAB";"10.5";"22.5";"100"
"Plie d'Europe";"PLE";"1.9";"14.4";"75"
"Crevette grise";"CSH";"-8.9";"1.7";"50"
"x"
"Clust 1"
"tabClusters[1:sizeTabClusters[i], , i]"
"Crevette grise"
"CSH"
"13.4"
"99.7"
"100"
"x"
"Clust 2"
"Libname";"FAO";"Test-value";"% Catch";"% Logevents"
"Crevette grise";"CSH";"-0.6";"91.8";"100"
"Limande";"DAB";"4.6";"4.1";"94.4"
"Anguille d'Europe";"ELE";"1.1";"1.3";"8.3"
"Sole commune";"SOL";"-0.1";"0.4";"47.2"
"Plie d'Europe";"PLE";"-1";"0.1";"33.3"
"x"
"Clust 3"
"Libname";"FAO";"Test-value";"% Catch";"% Logevents"
"Crevette grise";"CSH";"-2.4";"81.9";"100"
"Limande";"DAB";"11.4";"12.6";"100"
"Sole commune";"SOL";"0.1";"0.5";"37.5"
"Plie d'Europe";"PLE";"-0.5";"0.5";"50"
"x"
"Clust 4"
"Libname";"FAO";"Test-value";"% Catch";"% Logevents"
"Anguille d'Europe";"ELE";"9.5";"25";"25"
"Crabe chinois";"ERS";"10.5";"25";"25"
"Plie d'Europe";"PLE";"1.5";"11.8";"50"
"Limande";"DAB";"3.7";"8.7";"25"
"Sole commune";"SOL";"1.7";"4.1";"25"
"x"
"Clust 5"
"Libname";"FAO";"Test-value";"% Catch";"% Logevents"
"Langoustine";"NEP";"19";"52.5";"100"
"Plie d'Europe";"PLE";"3.6";"28.5";"100"
"Crevette grise";"CSH";"-7.4";"5.7";"33.3"
"Limande";"DAB";"0.1";"1.4";"66.7"
"Sole commune";"SOL";"-0.1";"0.3";"33.3"
"x"
"Clust 6"
"Libname";"FAO";"Test-value";"% Catch";"% Logevents"
"Plie d'Europe";"PLE";"18.8";"77.8";"100"
"Crevette grise";"CSH";"-13.7";"5.2";"10"
"Langoustine";"NEP";"2.4";"4.1";"20"
"Limande";"DAB";"1.1";"2.5";"60"
"Sole commune";"SOL";"-0.2";"0.2";"10"
"x"
"Clust 7"
"Libname";"FAO";"Test-value";"% Catch";"% Logevents"
"Sole commune";"SOL";"19.9";"44";"100"
"Limande";"DAB";"10.5";"22.5";"100"
"Plie d'Europe";"PLE";"1.9";"14.4";"75"
"Crevette grise";"CSH";"-8.9";"1.7";"50"
"x"
"Clust 1"
"tabClusters[1:sizeTabClusters[i], , i]"
"Crevette grise"
"CSH"
"13.4"
"99.7"
"100"
"x"
"Clust 2"
"Libname";"FAO";"Test-value";"% Catch";"% Logevents"
"Crevette grise";"CSH";"-0.6";"91.8";"100"
"Limande";"DAB";"4.6";"4.1";"94.4"
"Anguille d'Europe";"ELE";"1.1";"1.3";"8.3"
"Sole commune";"SOL";"-0.1";"0.4";"47.2"
"Plie d'Europe";"PLE";"-1";"0.1";"33.3"
"x"
"Clust 3"
"Libname";"FAO";"Test-value";"% Catch";"% Logevents"
"Crevette grise";"CSH";"-2.4";"81.9";"100"
"Limande";"DAB";"11.4";"12.6";"100"
"Sole commune";"SOL";"0.1";"0.5";"37.5"
"Plie d'Europe";"PLE";"-0.5";"0.5";"50"
"x"
"Clust 4"
"Libname";"FAO";"Test-value";"% Catch";"% Logevents"
"Anguille d'Europe";"ELE";"9.5";"25";"25"
"Crabe chinois";"ERS";"10.5";"25";"25"
"Plie d'Europe";"PLE";"1.5";"11.8";"50"
"Limande";"DAB";"3.7";"8.7";"25"
"Sole commune";"SOL";"1.7";"4.1";"25"
"x"
"Clust 5"
"Libname";"FAO";"Test-value";"% Catch";"% Logevents"
"Langoustine";"NEP";"19";"52.5";"100"
"Plie d'Europe";"PLE";"3.6";"28.5";"100"
"Crevette grise";"CSH";"-7.4";"5.7";"33.3"
"Limande";"DAB";"0.1";"1.4";"66.7"
"Sole commune";"SOL";"-0.1";"0.3";"33.3"
"x"
"Clust 6"
"Libname";"FAO";"Test-value";"% Catch";"% Logevents"
"Plie d'Europe";"PLE";"18.8";"77.8";"100"
"Crevette grise";"CSH";"-13.7";"5.2";"10"
"Langoustine";"NEP";"2.4";"4.1";"20"
"Limande";"DAB";"1.1";"2.5";"60"
"Sole commune";"SOL";"-0.2";"0.2";"10"
"x"
"Clust 7"
"Libname";"FAO";"Test-value";"% Catch";"% Logevents"
"Sole commune";"SOL";"19.9";"44";"100"
"Limande";"DAB";"10.5";"22.5";"100"
"Plie d'Europe";"PLE";"1.9";"14.4";"75"
"Crevette grise";"CSH";"-8.9";"1.7";"50"
