"Number of species";1;2;3;4;5;6;7
"to have 50% of catch";1;1;1;1;1;1;2
"to have 90% of catch";2;4;4;4;1;3;7
"with a median higher than 50";1;1;1;1;1;1;0
"with a test-value > 1.96";2;5;3;5;3;5;12
"with a test-value > 3.29";0;3;2;2;0;5;12
"catch in 50% of the logevents";19;22;8;16;10;15;13
"catch in 90% of the logevents";3;10;8;16;3;6;13
"Clusters size";34;9;1;1;16;8;1
