"Number of species";1;2;3;4;5;6;7;8;9;10;11;12;13;14;15;16;17
"to have 50% of catch";1;1;1;2;1;1;1;1;1;1;1;1;1;1;1;1;1
"to have 90% of catch";2;2;1;3;2;11;2;11;1;11;11;2;3;3;3;4;2
"with a median higher than 50";1;1;1;0;1;1;1;1;1;1;1;1;1;1;1;1;1
"with a test-value > 1.96";1;1;1;1;2;0;2;2;1;2;1;1;1;1;0;1;1
"with a test-value > 3.29";1;1;1;0;0;0;1;1;1;0;1;1;0;0;0;1;0
"catch in 50% of the logevents";4;1;3;4;2;5;1;2;1;2;2;3;3;5;3;6;2
"catch in 90% of the logevents";4;1;1;4;2;5;1;2;1;2;2;3;3;5;3;6;2
"Clusters size";2;7;5;1;4;3;2;2;1;2;3;1;2;1;2;1;1
