"Number of species";1;2;3;4;5;6;7;8
"to have 50% of catch";2;1;1;2;2;1;2;1
"to have 90% of catch";4;3;2;4;5;1;4;3
"with a median higher than 50";0;1;1;0;0;1;0;1
"with a test-value > 1.96";1;1;1;1;1;1;1;1
"with a test-value > 3.29";0;1;0;1;1;1;0;1
"catch in 50% of the logevents";5;5;4;5;5;1;5;5
"catch in 90% of the logevents";5;2;2;5;5;1;4;2
"Clusters size";18;21;8;6;6;14;10;6
