"Number of species";1;2;3;4;5;6;7;8
"to have 50% of catch";4;3;2;1;2;3;1;1
"to have 90% of catch";13;11;10;6;10;7;6;1
"with a median higher than 50";0;0;0;1;0;0;1;1
"with a test-value > 1.96";3;3;6;1;4;5;1;1
"with a test-value > 3.29";3;2;3;1;4;4;1;1
"catch in 50% of the logevents";16;15;13;12;15;9;9;1
"catch in 90% of the logevents";4;4;1;9;4;6;3;1
"Clusters size";37;117;54;21;40;35;34;1
