"Number of species";1;2;3;4;5;6;7;8;9
"to have 50% of catch";2;1;2;1;1;1;1;1;2
"to have 90% of catch";3;2;7;1;4;4;2;1;7
"with a median higher than 50";1;1;0;1;1;1;1;1;0
"with a test-value > 1.96";2;1;1;1;0;1;0;1;2
"with a test-value > 3.29";2;1;0;1;0;1;0;1;1
"catch in 50% of the logevents";5;2;4;1;4;4;2;1;2
"catch in 90% of the logevents";3;2;2;1;3;2;2;1;2
"Clusters size";8;5;3;11;3;5;3;1;2
