"Number of species";1;2;3;4;5;6;7;8;9
"to have 50% of catch";1;1;1;1;2;1;1;1;1
"to have 90% of catch";1;3;3;3;3;12;2;2;5
"with a median higher than 50";1;1;1;1;0;1;1;1;1
"with a test-value > 1.96";1;0;1;2;1;1;2;2;1
"with a test-value > 3.29";1;0;1;2;1;1;2;2;1
"catch in 50% of the logevents";4;7;3;3;4;1;2;2;2
"catch in 90% of the logevents";1;2;2;1;4;1;1;2;2
"Clusters size";24;13;5;6;1;1;5;1;3
