"Number of species";1;2;3;4;5;6;7;8;9
"to have 50% of catch";1;1;1;1;1;1;1;1;1
"to have 90% of catch";1;1;3;2;2;1;2;1;6
"with a median higher than 50";1;1;1;1;1;1;1;1;1
"with a test-value > 1.96";0;1;1;1;0;0;0;0;6
"with a test-value > 3.29";0;0;0;0;0;0;0;0;1
"catch in 50% of the logevents";4;1;8;7;9;2;9;5;9
"catch in 90% of the logevents";3;1;8;7;9;2;9;5;9
"Clusters size";5;2;1;1;3;2;1;1;1
