"Number of species";1;2;3;4;5;6;7;8
"to have 50% of catch";1;1;1;1;1;2;1;1
"to have 90% of catch";2;3;1;3;2;2;3;1
"with a median higher than 50";1;1;1;1;0;0;1;1
"with a test-value > 1.96";1;2;1;2;2;2;3;1
"with a test-value > 3.29";1;2;1;2;2;2;3;1
"catch in 50% of the logevents";6;3;1;5;0;3;3;1
"catch in 90% of the logevents";6;3;1;1;0;1;3;1
"Clusters size";4;1;109;7;2;10;1;1
