"Number of species";1;2;3;4;5;6;7;8;9;10;11;12
"to have 50% of catch";1;1;2;2;1;1;1;1;2;1;1;2
"to have 90% of catch";1;1;4;3;2;1;2;9;3;3;1;2
"with a median higher than 50";1;1;0;0;1;1;1;1;0;1;1;0
"with a test-value > 1.96";1;1;1;1;2;1;1;1;0;1;1;0
"with a test-value > 3.29";1;1;0;1;1;1;1;1;0;0;1;0
"catch in 50% of the logevents";1;2;6;2;2;1;1;2;3;3;1;2
"catch in 90% of the logevents";1;1;6;2;2;1;1;2;3;3;1;2
"Clusters size";8;5;2;2;4;2;4;1;1;1;3;3
