"Number of species";1;2;3;4;5;6;7;8;9;10
"to have 50% of catch";3;1;2;1;3;1;3;3;2;2
"to have 90% of catch";9;4;5;3;8;5;10;9;5;6
"with a median higher than 50";0;1;0;1;0;1;0;0;0;0
"with a test-value > 1.96";6;1;4;2;4;5;9;7;6;4
"with a test-value > 3.29";4;0;4;2;4;3;4;4;4;4
"catch in 50% of the logevents";18;23;10;14;16;22;10;16;18;11
"catch in 90% of the logevents";6;12;10;1;16;16;10;16;7;5
"Clusters size";3;39;1;11;1;34;2;1;8;3
